Easily generate continuous coordinates following random trajectory • meandr
…
The above data doesn’t exhibit any prolonged directional consistency. This may not adequately emulate the character of the above examples.

meandr offers a solution to this problem. Each call to meandr() generates a unique tibble of t and f coordinates. For reproducibility, a seed argument is provided.

library(meandr)

df1 <- meandr(n_points = 100,
              n_nodes = 20,
              seed = 2)

df1
#> # A tibble: 100 x 2
#>         t        f
#>     <dbl>    <dbl>
#>  1 0.01   -0.00400
#>  2 0.02   -0.0160 
#>  3 0.03   -0.0360 
#>  4 0.04   -0.0640 
#>  5 0.05   -0.100  
#>  6 0.06   -0.144  
#>  7 0.0700 -0.196  
#>  8 0.08   -0.256  
#>  9 0.09   -0.324  
#> 10 0.10   -0.400  
#> # ... with 90 more rows
…
