Generate random coordinates following continuous trajectory — meandr • meandr
…
(2) Integrate "f2" twice to obtain continuously differentiable function, "f".

(3) Interval (0, 1] is cut into n_points - resulting values passed to "f".

(4) Output coordinates in tibble

    Examples

# See vignette("meandr")

# each call produces unique output
meandr()

#> # A tibble: 100 x 2
#>         t       f
#>     <dbl>   <dbl>
#>  1 0.01   -0.0313
#>  2 0.02   -0.125 
#>  3 0.03   -0.219 
#>  4 0.04   -0.25  
#>  5 0.05   -0.281 
#>  6 0.06   -0.313 
#>  7 0.0700 -0.344 
#>  8 0.08   -0.375 
#>  9 0.09   -0.344 
#> 10 0.10   -0.25  
#> # ... with 90 more rows
…
